[gd_scene load_steps=8 format=2]

[sub_resource type="GDScript" id=1]
script/source = "extends VBoxContainer

var FPS = 0
var PPS = 0



func _ready():
#	var temp = get_viewport()
	visible = true

func updateObject(object):
	for i in get_children():
		if \"object\" in i:
			i.object = object 
	

func drawLines():
	$FPS.text = \"FPS: \" + String(FPS)
	$PPS.text = \"PPS: \" + String(PPS)

func _process(delta):
	if( delta != 0 ): #wtf, how did this happen?
		FPS = floor((1 / delta) + .5)
	
	if Input.is_action_just_pressed(\"Metrics\"):
		visible = ! visible
	
	if visible: 
		drawLines()

func _physics_process(delta):
	PPS = floor((1 / delta) + .5)
	
	"

[sub_resource type="GDScript" id=2]
script/source = "extends Label

var object

func _ready():
	pass


func _process(delta):
	var a = object.jumpCount
	text = \"Jump count:\" + String(a)
"

[sub_resource type="GDScript" id=3]
script/source = "extends Label

var object

func _ready():
	pass


func _process(delta):
	var a = object.state
	text = \"state:\" + String(a)
"

[sub_resource type="GDScript" id=4]
script/source = "extends Label

var object

func _ready():
	pass


func _process(delta):
	var a = object.grounded
	text = \"grounded?:\" + String(a)
"

[sub_resource type="GDScript" id=5]
script/source = "extends Label

var object

func _ready():
	pass


func _process(delta):
	var a =  object.groundedOld
	#get_parent().get_parent().get_parent().get_parent().get_node(\"Player\").groundedNew or get_parent().get_parent().get_parent().get_parent().get_node(\"Player\").groundedOld
	text = \"Ogrounded:\" + String(a)
"

[sub_resource type="GDScript" id=6]
script/source = "extends Label

var object

func _ready():
	pass


func _process(delta):
	var a = object.groundedNew
	#get_parent().get_parent().get_parent().get_parent().get_node(\"Player\").groundedNew or get_parent().get_parent().get_parent().get_parent().get_node(\"Player\").groundedOld
	text = \"Ngrounded:\" + String(a)
"

[sub_resource type="GDScript" id=7]
script/source = "extends Label

var errorTest = \"\"

func _ready():
	pass


func _process(delta):
#	print(delta)
	if delta > .1:
		errorTest = errorTest + \"Error: draw time too long(\" + String(delta) + \")\\n\" 
		text = errorTest"

[node name="Rows" type="VBoxContainer"]
margin_left = 28.4321
margin_top = 27.3241
margin_right = 282.432
margin_bottom = 279.324
script = SubResource( 1 )

[node name="FPS" type="Label" parent="."]
margin_right = 254.0
margin_bottom = 25.0
text = "qwer"

[node name="PPS" type="Label" parent="."]
margin_top = 33.0
margin_right = 254.0
margin_bottom = 58.0
text = "qwer"

[node name="toggle" type="Label" parent="."]
margin_top = 66.0
margin_right = 254.0
margin_bottom = 153.0
text = "\"M\" to hide
\"WASD\" to move
\"P\" to toggle properties"

[node name="jumpCount" type="Label" parent="."]
visible = false
margin_top = 161.0
margin_right = 254.0
margin_bottom = 186.0
script = SubResource( 2 )

[node name="state" type="Label" parent="."]
visible = false
margin_top = 194.0
margin_right = 254.0
margin_bottom = 219.0
script = SubResource( 3 )

[node name="grounded" type="Label" parent="."]
visible = false
margin_top = 227.0
margin_right = 254.0
margin_bottom = 252.0
script = SubResource( 4 )

[node name="grounded2" type="Label" parent="."]
visible = false
margin_top = 260.0
margin_right = 254.0
margin_bottom = 285.0
script = SubResource( 5 )

[node name="grounded3" type="Label" parent="."]
visible = false
margin_top = 293.0
margin_right = 254.0
margin_bottom = 318.0
script = SubResource( 6 )

[node name="errorLabel" type="Label" parent="."]
margin_top = 161.0
margin_right = 254.0
margin_bottom = 186.0
script = SubResource( 7 )
