[gd_scene load_steps=2 format=2]

[ext_resource path="res://art/shaders/FadeLineShader.tres" type="Material" id=1]

[node name="Line2D" type="Line2D"]
material = ExtResource( 1 )
position = Vector2( 263.46, -304.503 )
points = PoolVector2Array( -102.785, 67.5705, -291.151, -198.359, 350.599, -216.573, 409.31, 167.197, 71.363, 430.681, -103.893, 64.2464 )
width = 64.0
texture_mode = 277709696
